projectKey=udsf
serverUrl=http://127.0.0.1:9000
serverVersion=8.2.0.32929
dashboardUrl=http://127.0.0.1:9000/dashboard?id=udsf
ceTaskId=AXF435Tm_omkYyB1ON5u
ceTaskUrl=http://127.0.0.1:9000/api/ce/task?id=AXF435Tm_omkYyB1ON5u
